{
    "$schema": "https://vega.github.io/schema/vega/v4.json",
    "width": 700,
    "height": 1000,
    "padding": 10,
    "autosize": "fit",
  
    "signals": [
      {
        "name": "startAngle", "value": 4.71
      },
      {
        "name": "endAngle", "value": 7.85
      },
      {
        "name": "innerRadius", "value": 310
      },
      {
        "name": "padAngle", "value": 0.005
      }
    ],
  
    "data": [
      {
        "name": "table",
        "values": [
          {"id": 1, "field": 50},
          {"id": 2, "field": 13},
          {"id": 3, "field": 9},
          {"id": 4, "field": 9},
          {"id": 5, "field": 19}
        ],
        "transform": [
          {
            "type": "pie",
            "field": "field",
            "startAngle": {"signal": "startAngle"},
            "endAngle": {"signal": "endAngle"}
          }
          
          
        ]
      }
    ],
  
    "scales": [
      {
        "name": "color",
        "type": "ordinal",
        "domain": {"data": "table", "field": "id"},
        "range": {"scheme": "category20"}
      }
    ],
  
    "marks": [
      {
        "type": "arc",
        "from": {"data": "table"},
        "encode": {
          "enter": {
            "fill": {"scale": "color", "field": "id"},
            "x": {"signal": "width / 2"},
            "y": {"signal": "height / 2"}
          },
          "update": {
            "startAngle": {"field": "startAngle"},
            "endAngle": {"field": "endAngle"},
            "innerRadius": {"signal": "innerRadius"},
            "outerRadius": {"signal": "width / 2"},
            "padAngle": {"signal": "padAngle"}
          }
          
        }
      },
              {
        "type": "text",
        "from": {"data": "table"},
        "zindex": 1,
        "encode": {
          "enter": {
            "fill": {"value": "#fff"},
            "x": {"value": 88},
            "y":{"value": 200},
          "baseline": {"value": "middle"},
          "text": {"value": "50%"},
          "fontSize": {"value": 12},
          "fontWeight": {"value": "bold"}
          }
        }
      },
      {
        "type": "text",
        "from": {"data": "table"},
        "zindex": 1,
        "encode": {
          "enter": {
            "fill": {"value": "#fff"},
            "x": {"value": 394},
            "y":{"value": 140},
          "baseline": {"value": "middle"},
          "text": {"value": "13%"},
          "fontSize": {"value": 12},
          "fontWeight": {"value": "bold"}
          }
        }
      },
      {
        "type": "text",
        "from": {"data": "table"},
        "zindex": 1,
        "encode": {
          "enter": {
            "fill": {"value": "#fff"},
            "x": {"value": 538},
            "y":{"value": 180},
          "baseline": {"value": "middle"},
          "text": {"value": "9%"},
          "fontSize": {"value": 12},
          "fontWeight": {"value": "bold"}
          }
        }
      },
       {
        "type": "text",
        "from": {"data": "table"},
        "zindex": 1,
        "encode": {
          "enter": {
            "fill": {"value": "#fff"},
            "x": {"value": 618},
            "y":{"value": 250},
          "baseline": {"value": "middle"},
          "text": {"value": "9%"},
          "fontSize": {"value": 12},
          "fontWeight": {"value": "bold"}
          }
        }
      },
       {
        "type": "text",
        "from": {"data": "table"},
        "zindex": 1,
        "encode": {
          "enter": {
            "fill": {"value": "#fff"},
            "x": {"value": 674},
            "y":{"value": 345},
          "baseline": {"value": "middle"},
          "text": {"value": "19%"},
          "fontSize": {"value": 12},
          "fontWeight": {"value": "bold"}
          }
        }
      },
      {
      "type": "rect",
      "encode": {
          "enter": {
            "fill": {"value": "#1f77b4"},
             "width": {"value": 50},
            "height": {"value": 20},
            "x": {"value": 75},
            "y": {"value": 190}
          }
      }
      },
       {
      "type": "rect",
      "encode": {
          "enter": {
            "fill": {"value": "#aec7e8"},
             "width": {"value": 50},
            "height": {"value": 20},
            "x": {"value": 380},
            "y": {"value": 130}
          }
      }
      },
      {
      "type": "rect",
      "encode": {
          "enter": {
            "fill": {"value": "#ff7f0e"},
             "width": {"value": 50},
            "height": {"value": 20},
            "x": {"value": 520},
            "y": {"value": 170}
          }
      }
      },
      {
      "type": "rect",
      "encode": {
          "enter": {
            "fill": {"value": "#ffbb78"},
             "width": {"value": 50},
            "height": {"value": 20},
            "x": {"value": 600},
            "y": {"value": 240}
          }
      }
      },
      {
      "type": "rect",
      "encode": {
          "enter": {
            "fill": {"value": "#2ca02c"},
             "width": {"value": 50},
            "height": {"value": 20},
            "x": {"value": 660},
            "y": {"value": 335}
          }
      }
      },
      {
        "type": "text",
        "from": {"data": "table"},
        "encode": {
          "enter": {
            "fill": {"value": "#5dabd5"},
            "x": {"value": 50},
            "y": {"value": 170},
          "baseline": {"value": "middle"},
          "text": {"value": "TRADITIONAL"},
          "fontSize": {"value": 12}
          }
        }
      },
          {
        "type": "text",
        "from": {"data": "table"},
        "encode": {
          "enter": {
            "fill": {"value": "#aec7e8"},
            "x": {"value": 400},
            "y": {"value": 110},
          "baseline": {"value": "middle"},
          "text": {"value": "GDS"},
          "fontSize": {"value": 12}
          }
        }
      },
          {
        "type": "text",
        "from": {"data": "table"},
        "encode": {
          "enter": {
            "fill": {"value": "#ff7f0e"},
            "x": {"value": 490},
            "y": {"value": 150},
          "baseline": {"value": "middle"},
          "text": {"value": "MANAGED SERVICES"},
          "fontSize": {"value": 12}
          }
        }
      },
          {
        "type": "text",
        "from": {"data": "table"},
        "encode": {
          "enter": {
            "fill": {"value": "#ffbb78"},
            "x": {"value": 600},
            "y":{"value": 220},
          "baseline": {"value": "middle"},
          "text": {"value": "CONTINGENT"},
          "fontSize": {"value": 12}
          }
        }
      },
      {
        "type": "text",
        "from": {"data": "table"},
        "encode": {
          "enter": {
            "fill": {"value": "#2ca02c"},
            "x": {"value": 670},
            "y": {"value": 320},
          "baseline": {"value": "middle"},
          "text": {"value": "DIGITAL"},
          "fontSize": {"value":10}
          }
        }
      }
    ]
  }
  
  